Gender and international diversity improves equity in peer review: R Notebook
…
Frequencies of author and gatekepeer continental affilaitions at eLife

people %>% 
  group_by(type) %>%
  mutate(total = n()) %>%
  group_by(type, continent) %>%
  summarize(
    freq = n(),
    prop = freq / total[1]
    )

## # A tibble: 29 x 4
## # Groups:   type [?]
##            type     continent  freq         prop
##           <chr>         <chr> <int>        <dbl>
##  1 Corr. Author        Africa    62 3.402294e-03
##  2 Corr. Author    Antarctica     1 5.487571e-05
##  3 Corr. Author          Asia  3288 1.804313e-01
##  4 Corr. Author        Europe  7211 3.957087e-01
##  5 Corr. Author North America  7045 3.865994e-01
##  6 Corr. Author       Oceania   399 2.189541e-02
##  7 Corr. Author South America   188 1.031663e-02
##  8 Corr. Author          <NA>    29 1.591395e-03
##  9 First Author        Africa    14 2.087060e-03
## 10 First Author    Antarctica     1 1.490757e-04
## # ... with 19 more rows
…
Proportion of accepted submissions constituted by top 8 counties

sum(data_table$`Prop. of Accepted Submissions`)

## [1] 0.8654407

Data used to produce figure 5, bottom panel

data_table <- data_fig5_p2 %>%
  select(-se, -lower, -upper)

data_table

## # A tibble: 24 x 7
## # Groups:   measure_key [3]
##        ca_country paper_count accept_count encourage_count totals
##            <fctr>       <int>        <int>           <int>  <int>
##  1         Canada         707           71             159    707
##  2          China        1662           81             209   1662
##  3         France        1042          132             281   1042
##  4        Germany        2011          305             588   2011
##  5          Japan         775           65             166    775
##  6          Spain         526           35              88    526
##  7 United Kingdom        2379          394             753   2379
##  8  United States        8553         1882            3354   8553
##  9         Canada         707           71             159    707
## 10          China        1662           81             209   1662
## # ... with 14 more rows, and 2 more variables: measure_key <fctr>,
## #   measurement <dbl>
…
Presence of author-reviewer national homogeny by country of correposnding author

full <- elife %>% 
  filter(has_full_submission) %>%
  group_by(ca_country) %>%
  summarize(
    submissions = n(),
    prop_homogeny = sum(ca_country_homophily, na.rm = T) / submissions
  ) %>%
  arrange(-prop_homogeny)

full

## # A tibble: 54 x 3
##        ca_country submissions prop_homogeny
##            <fctr>       <int>         <dbl>
##  1  united states        3605    0.90513176
##  2 united kingdom         803    0.29763387
##  3        germany         641    0.25273011
##  4         canada         176    0.11363636
##  5    south korea          45    0.11111111
##  6   south africa          11    0.09090909
##  7         france         310    0.07741935
##  8          japan         184    0.07608696
##  9      australia         101    0.06930693
## 10          china         233    0.06437768
## # ... with 44 more rows
…
